{ "_id" : "http://www.submarino.com.br/produto/113920760/relogio-garmin-fenix-performer-bundle", "titulo" : " Relógio Garmin Fênix Performer Bundle", "categorias" : [ [ "CoolStuff\nMundo Esportes", "Fitness e Musculação", "Monitor Cardíaco" ] ], "definicoes" : "definicao defs preco base =  R$ 1.849,00. \n  definicao defs  Marca  =  Garmin . \n definicao defs  Características da tela / monitor  =  3,1 x 3,1cm . \n definicao defs  Composição/Material  =  Componentes eletônicos, Borracha e Plastico . \n definicao defs  Alimentação  =  Cabo USB e adaptador de CA . \n definicao defs  Recomendações de Uso  =  Alpinismo, atividades ao ar livre, corrida . \n definicao defs  Cor  =  Preto . \n definicao defs  Dados do treino  =  Compatível com BaseCamp¿ e ANT+¿ . \n definicao defs  Histórico  =  Marca até 1.000 waypoints e armazena até 10.000 track points . \n definicao defs  Alertas  =  Sonoro e vibratório . \n definicao defs  Datums  =  Não se aplica . \n definicao defs  Rotas  =  Possibilita criar e seguir rotas, marcar até 1.000 paradas e armazenar até 10.000 pontos de trajeto. Você pode até mesmo criar seus dados de viagem com o BaseCamp¿, o software gratuito para planejamento de viagens para desktop da Garmin . \n definicao defs  Características de desempenho  =  Até 50 horas em modo relógio e até 16 horas em modo GPS . \n definicao defs  Outros recursos  =  Funções de relógio (alarmes, cronômetro, alerta vibratório, toques, hora e relógio mundial); À prova d¿agua (50m); Sensor de temperatura; Bluetooh . \n definicao defs  Conteúdo da Embalagem  =  GPS de pulso Fênix; 2 pulseiras (preta e laranja); 1 Cinta de Monitor Cardíaco Premium ; Cabo USB; Adaptador de CA com plugue; Manual . \n definicao defs  Dimensões aproximadas do produto (cm) AxLxP  =  4,9 x 4,9 x 1,7cm . \n definicao defs  Peso líq. aproximado do produto (kg)  =  0,141g . \n definicao defs  Garantia do Fornecedor  =  12 meses . \n definicao defs  Modelo  =  Garmin Fenix Performer Bundle . \n definicao defs  Referência do Modelo  =  010-01040-11 . \n definicao defs  Fornecedor  =  Garmin . \n definicao defs  Código de Barras  =  753759996857 . \n ", "imagem" : "http://isuba.s8.com.br/produtos/01/00/item/113920/7/113920760_1GG.jpg" }
{ "_id" : "http://www.submarino.com.br/produto/113920760/relogio-garmin-fenix-performer-bundle#opinioes", "titulo" : " Relógio Garmin Fênix Performer Bundle", "categorias" : [ [ "CoolStuff\nMundo Esportes", "Fitness e Musculação", "Monitor Cardíaco" ] ], "definicoes" : "definicao defs preco base =  R$ 1.849,00. \n  definicao defs  Marca  =  Garmin . \n definicao defs  Características da tela / monitor  =  3,1 x 3,1cm . \n definicao defs  Composição/Material  =  Componentes eletônicos, Borracha e Plastico . \n definicao defs  Alimentação  =  Cabo USB e adaptador de CA . \n definicao defs  Recomendações de Uso  =  Alpinismo, atividades ao ar livre, corrida . \n definicao defs  Cor  =  Preto . \n definicao defs  Dados do treino  =  Compatível com BaseCamp¿ e ANT+¿ . \n definicao defs  Histórico  =  Marca até 1.000 waypoints e armazena até 10.000 track points . \n definicao defs  Alertas  =  Sonoro e vibratório . \n definicao defs  Datums  =  Não se aplica . \n definicao defs  Rotas  =  Possibilita criar e seguir rotas, marcar até 1.000 paradas e armazenar até 10.000 pontos de trajeto. Você pode até mesmo criar seus dados de viagem com o BaseCamp¿, o software gratuito para planejamento de viagens para desktop da Garmin . \n definicao defs  Características de desempenho  =  Até 50 horas em modo relógio e até 16 horas em modo GPS . \n definicao defs  Outros recursos  =  Funções de relógio (alarmes, cronômetro, alerta vibratório, toques, hora e relógio mundial); À prova d¿agua (50m); Sensor de temperatura; Bluetooh . \n definicao defs  Conteúdo da Embalagem  =  GPS de pulso Fênix; 2 pulseiras (preta e laranja); 1 Cinta de Monitor Cardíaco Premium ; Cabo USB; Adaptador de CA com plugue; Manual . \n definicao defs  Dimensões aproximadas do produto (cm) AxLxP  =  4,9 x 4,9 x 1,7cm . \n definicao defs  Peso líq. aproximado do produto (kg)  =  0,141g . \n definicao defs  Garantia do Fornecedor  =  12 meses . \n definicao defs  Modelo  =  Garmin Fenix Performer Bundle . \n definicao defs  Referência do Modelo  =  010-01040-11 . \n definicao defs  Fornecedor  =  Garmin . \n definicao defs  Código de Barras  =  753759996857 . \n ", "imagem" : "http://isuba.s8.com.br/produtos/01/00/item/113920/7/113920760_1GG.jpg" }
{ "_id" : "http://www.submarino.com.br/produto/114244003/bike-trailer-urbano-travoy-burley", "titulo" : " Bike Trailer Urbano Travoy Burley", "categorias" : [ [ "CoolStuff\nMundo Esportes", "Bicicletas", "Acessório para Bike" ] ], "definicoes" : "definicao defs preco base =  R$ 1.699,00. \n  definicao defs  Marca  =  Burley . \n definicao defs  Idade recomendada  =  Adulto / A partir de 16 anos . \n definicao defs  Gênero  =  Unissex . \n definicao defs  Aro  =  12 . \n definicao defs  Quadro  =  Estrutura de alumínio . \n definicao defs  Marcha  =  Não . \n definicao defs  Garfo  =  Não . \n definicao defs  Guidão  =  Não . \n definicao defs  Freios  =  Não . \n definicao defs  Rodas  =  Sim . \n definicao defs  Páralamas  =  Não . \n definicao defs  Manoplas  =  Não . \n definicao defs  Corrente  =  Não . \n definicao defs  Selim  =  Não . \n definicao defs  Cobre-corrente  =  Não . \n definicao defs  Pedivela  =  Não . \n definicao defs  Engrenagem  =  Não . \n definicao defs  Pneus  =  12 . \n definicao defs  Pedal  =  Não . \n definicao defs  Movimento central  =  Não . \n definicao defs  Peso máximo recomendado (kg)  =  27kg . \n definicao defs  Conteúdo da Embalagem  =  1 Bike Trailer, 1 Tote Bag, 2 Cintas de Carga e 1 Manual de Instruções . \n definicao defs  Dimensões aproximadas do produto (cm) AxLxP  =  53.3x46.7x20.3cm (fechado) . \n definicao defs  Dimensões aproximadas da embalagem (cm) AxLxP  =  48x58x25cm . \n definicao defs  Peso líq. aproximado do produto (kg)  =  4,4Kg . \n definicao defs  Peso aproximado da embalagem do produto (kg)  =  6,35kg . \n definicao defs  Garantia do Fornecedor  =  36 meses . \n definicao defs  Mais Informações  =  Especificações Técnicas Capacidade: 27.3 kg Peso: 4.4 kg Largura entre rodas: 50.8 cm Altura da barra de reboque: 80-96 cm Rodas: 12 polegadas Tamanho fechado C x L x A (cm): 53.3 x 46.7 x 20.3. . \n definicao defs  Modelo  =  951301 . \n definicao defs  Referência do Modelo  =  951301 . \n definicao defs  Fornecedor  =  Neo Solum Import . \n definicao defs  SAC  =  (11) 2495-6106 . \n definicao defs  Código de Barras  =  840840006394 . \n ", "imagem" : "http://img.submarino.com.br/produtos/01/00/item/114244/0/114244003_1GG.jpg" }
{ "_id" : "http://www.submarino.com.br/produto/114244003/bike-trailer-urbano-travoy-burley#opinioes", "titulo" : " Bike Trailer Urbano Travoy Burley", "categorias" : [ [ "CoolStuff\nMundo Esportes", "Bicicletas", "Acessório para Bike" ] ], "definicoes" : "definicao defs preco base =  R$ 1.699,00. \n  definicao defs  Marca  =  Burley . \n definicao defs  Idade recomendada  =  Adulto / A partir de 16 anos . \n definicao defs  Gênero  =  Unissex . \n definicao defs  Aro  =  12 . \n definicao defs  Quadro  =  Estrutura de alumínio . \n definicao defs  Marcha  =  Não . \n definicao defs  Garfo  =  Não . \n definicao defs  Guidão  =  Não . \n definicao defs  Freios  =  Não . \n definicao defs  Rodas  =  Sim . \n definicao defs  Páralamas  =  Não . \n definicao defs  Manoplas  =  Não . \n definicao defs  Corrente  =  Não . \n definicao defs  Selim  =  Não . \n definicao defs  Cobre-corrente  =  Não . \n definicao defs  Pedivela  =  Não . \n definicao defs  Engrenagem  =  Não . \n definicao defs  Pneus  =  12 . \n definicao defs  Pedal  =  Não . \n definicao defs  Movimento central  =  Não . \n definicao defs  Peso máximo recomendado (kg)  =  27kg . \n definicao defs  Conteúdo da Embalagem  =  1 Bike Trailer, 1 Tote Bag, 2 Cintas de Carga e 1 Manual de Instruções . \n definicao defs  Dimensões aproximadas do produto (cm) AxLxP  =  53.3x46.7x20.3cm (fechado) . \n definicao defs  Dimensões aproximadas da embalagem (cm) AxLxP  =  48x58x25cm . \n definicao defs  Peso líq. aproximado do produto (kg)  =  4,4Kg . \n definicao defs  Peso aproximado da embalagem do produto (kg)  =  6,35kg . \n definicao defs  Garantia do Fornecedor  =  36 meses . \n definicao defs  Mais Informações  =  Especificações Técnicas Capacidade: 27.3 kg Peso: 4.4 kg Largura entre rodas: 50.8 cm Altura da barra de reboque: 80-96 cm Rodas: 12 polegadas Tamanho fechado C x L x A (cm): 53.3 x 46.7 x 20.3. . \n definicao defs  Modelo  =  951301 . \n definicao defs  Referência do Modelo  =  951301 . \n definicao defs  Fornecedor  =  Neo Solum Import . \n definicao defs  SAC  =  (11) 2495-6106 . \n definicao defs  Código de Barras  =  840840006394 . \n ", "imagem" : "http://img.submarino.com.br/produtos/01/00/item/114244/0/114244003_1GG.jpg" }
{ "_id" : "http://www.submarino.com.br/produto/121405012/skate-fish-skateboards-cruiser-pink-pastel-22-#opinioes", "titulo" : " Skate Fish Skateboards Cruiser Pink Pastel 22''", "categorias" : [ [ "CoolStuff\nMundo Esportes", "Esportes Radicais", "Skates" ] ], "definicoes" : "definicao defs preco base =  R$ 319,00. \n  definicao defs  Marca  =  Fish Skateboards . \n definicao defs  Idade recomendada  =  A partir dos 6 anos . \n definicao defs  Gênero  =  Unissex . \n definicao defs  Categoria  =  Amador . \n definicao defs  Composição/Material  =  Polipropileno com fibras fresh . \n definicao defs  Cor  =  Rosa . \n definicao defs  Características das rodas  =  PU GEL 59MM 78A . \n definicao defs  Base antiderrapante  =  Sim . \n definicao defs  Conteúdo da Embalagem  =  1 Skate . \n definicao defs  Peso máximo recomendado (kg)  =  100kg . \n definicao defs  Dimensões aproximadas do produto (cm) AxLxP  =  10x15,5x56cm . \n definicao defs  Peso líq. aproximado do produto (kg)  =  1,6kg . \n definicao defs  Garantia do Fornecedor  =  3 meses . \n definicao defs  Modelo  =  Fish Pastel 22'' . \n definicao defs  Referência do Modelo  =  22150601 . \n definicao defs  Fornecedor  =  2LA Import . \n definicao defs  SAC  =  (11) 3477.0245 . \n definicao defs  Código de Barras  =  7898954793290 . \n ", "imagem" : "http://isuba.s8.com.br/produtos/01/00/item/121405/0/121405012_1GG.jpg" }
{ "_id" : "http://www.submarino.com.br/produto/121549155/pulseira-inteligente-vivosmart-preta-grande-garmin", "titulo" : " Pulseira Inteligente Vivosmart Preta Grande Garmin", "categorias" : [ [ "CoolStuff\nMundo Esportes", "Fitness e Musculação", "Monitor Cardíaco" ] ], "definicoes" : "definicao defs preco base =  R$ 899,00. \n  definicao defs  Marca  =  Garmin . \n definicao defs  Composição/Material  =  Borracha, componentes eletrônicos e plástico . \n definicao defs  Alimentação  =  Bateria recarregável . \n definicao defs  Recomendações de Uso  =  Monitoramento de atividades diárias / Esportes . \n definicao defs  Cor  =  Preta . \n definicao defs  GPS  =  Não . \n definicao defs  Relógio  =  Sim . \n definicao defs  Alarme  =  Não . \n definicao defs  Cronômetro  =  Sim . \n definicao defs  Barômetro  =  Não . \n definicao defs  Bússola  =  Não . \n definicao defs  Dual Time  =  Não . \n definicao defs  Outras funções  =  Campos/telas de dados no dispositivo: Contador de passos diário, contagem de objetivo, distância, calorias, hora, frequência cardíaca, velocidade da bicicleta, câmera de ação VIRB e controles remotos do reprodutor de música / Histórico: armazena até 3 semanas de dados de atividades ininterruptamente por semana no dispositivo entre sincronizações, ou até 2 semanas se o monitor de frequência cardíaca for usado 1 hora por dia / Compatível com frequência e zona cardíaca: Sim (quando usado com um monitor de frequência cardíaca ANT+) . \n definicao defs  Conteúdo da Embalagem  =  Vívosmart / presilha de carregamento/dados / vívokeeper / documentação . \n definicao defs  Dimensões aproximadas do produto (cm) AxLxP  =  155 a 221mm . \n definicao defs  Peso líq. aproximado do produto (kg)  =  19g . \n definicao defs  Garantia do Fornecedor  =  12meses . \n definicao defs  Modelo  =  Vivosmart Preta Grande . \n definicao defs  Referência do Modelo  =  753759121969 . \n definicao defs  Fornecedor  =  Garmin . \n definicao defs  SAC  =  suporte.br@garmin.com / 0800-770-4974 . \n definicao defs  Código de Barras  =  753759121969 . \n ", "imagem" : "http://isuba.s8.com.br/produtos/01/00/item/121549/1/121549155_1GG.jpg" }
{ "_id" : "http://www.submarino.com.br/produto/7052647/bicicleta-schwinn-prologue-aro-700-vermelha-branca#opinioes", "titulo" : " Bicicleta Schwinn Prologue Aro 700 Vermelha / Branca", "categorias" : [ [ "CoolStuff\nMundo Esportes", "Bicicletas", "Speed / Corrida" ] ], "definicoes" : "definicao defs preco base =  R$ 7.099,00. \n  definicao defs  Marca  =  Schwinn . \n definicao defs  Gênero  =  Masculino . \n definicao defs  Aro  =  Xero Shawla 280 wheel set with aero double wall rim 28 hole fro and 32 role rear . \n definicao defs  Quadro  =  Schwinn N´Litened Gold Label Aero Aluminiun com geometria Road Tuned e hanguer deraileur substituível . \n definicao defs  Marcha  =  10 Velocidades . \n definicao defs  Garfo  =  Schwinn N´Litened Aero Blak Label Carbon with alloy steerer ar forget dropoust . \n definicao defs  Guidão  =  Vision Basebar with TT clip on . \n definicao defs  Freios  =  Tektro R350 forget road dual pivot caliper . \n definicao defs  Páralamas  =  Não informado pelo fornecedor . \n definicao defs  Manoplas  =  Não informado pelo fornecedor . \n definicao defs  Corrente  =  KMC DX-10SC super light . \n definicao defs  Selim  =  SanMarco Ponza Trion with Cro-Mo rails . \n definicao defs  Pedivela  =  FSA Mega Exo . \n definicao defs  Engrenagem  =  Não informado pelo fornecedor . \n definicao defs  Pneus  =  Vitoria Rubino 700x23C . \n definicao defs  Pedal  =  Road Clipless . \n definicao defs  Movimento central  =  Não informado pelo fornecedor . \n definicao defs  Conteúdo da Embalagem  =  Bicicleta Speed Aro 700 Prologue e manual de instruções . \n definicao defs  Dimensões aproximadas do produto (cm) AxLxP  =  73x20x136cm . \n definicao defs  Peso líq. aproximado do produto (kg)  =  17,9Kg . \n definicao defs  Garantia do Fornecedor  =  Contra defeitos de fabricação . \n definicao defs  Modelo  =  Aro 700 Prologue . \n definicao defs  Fornecedor  =  Schwinn . \n definicao defs  SAC  =  (11) 5561-5001 . \n definicao defs  Código de Barras  =  7898512540489 . \n ", "imagem" : "http://img.submarino.com.br/produtos/01/00/item/7052/6/7052647_1GG.jpg" }
