{ "_id" : "dornel.fabio2@gmail.com", "alert_token_is_send" : false, "buildversion" : 30, "city" : "Sarandi", "configs" : { "posts_for_refresh" : "5", "auto_comment" : true, "btn_translate" : true, "btn_subir" : true, "btn_refresh_post" : true, "posts_images" : true, "posts_video" : true, "theme" : "undefined", "lang" : false }, "date_first_access" : { "$date" : 1420766618541 }, "date_last_access" : { "$date" : 1428829847764 }, "first_name" : "Fábio", "last_name" : "Dornel", "list_channels_revoke" : null, "list_contacts" : [ { "name" : "Resposta de mensagem de e-mail", "email" : "m+31itsuij000zg6ah2r2o00002lokfgg4412iy0fkxg2m9lc82j5@reply.facebook.com" }, { "name" : "Resposta de mensagem de e-mail", "email" : "m+30sfh2bp000zg6ah2r2o00002lokwz94n2pwow2fow8hub1t2j6@reply.facebook.com" }, { "name" : "Resposta de mensagem de e-mail", "email" : "m+318vvila000zg6ah2r2o00002lonuljlufdwffd2prw0ho2c2j8@reply.facebook.com" }, { "name" : "Cabbles", "email" : "contato@cabbles.com.br" }, { "name" : "Resposta de mensagem de e-mail", "email" : "m+310pgu4v000zg6ah2r2o00002loqu413tw765no8uhacut8z2ja@reply.facebook.com" }, { "name" : "Jonas Machado", "email" : "jonas.machado@hotmail.com.br" }, { "name" : "Resposta de mensagem de e-mail", "email" : "m+30sfsz09000zg6ah2r2o00002ltvph8niv2nk8nuz2wiglc12jq@reply.facebook.com" }, { "name" : "Resposta de mensagem de e-mail", "email" : "m+30vzbnih000zg6ah2r2o00002ltvp34yqf4yvboag6mjosc22jq@reply.facebook.com" }, { "name" : "Maikel Alievi Alma de Guri", "email" : "maikeltche@hotmail.com" }, { "name" : "Vinicius Pigozzo", "email" : "vinipigozzo@gmail.com" }, { "name" : "Resposta de mensagem de e-mail", "email" : "m+31p49mrc000zg6ah2r2o00002lu4vz3ritc4odyfx8v69moo2jx@reply.facebook.com" }, { "name" : "Resposta de mensagem de e-mail", "email" : "m+30y0v3p5000zg6ah2r2o00002lu59y5n9pm3vbmey3siemu92jy@reply.facebook.com" }, { "name" : "Resposta de mensagem de e-mail", "email" : "m+31hlz5qn000zg6ah2r2o00002lvedv1h0wk7o1bg28fep16s2ki@reply.facebook.com" }, { "name" : "Danielly Paloma Machado Vieira", "email" : "danipalomavieira@gmail.com" }, { "name" : "Danielly Paloma Machado Vieira", "email" : "danigueti@gmail.com" }, { "name" : "Danielly Paloma Machado Vieira", "email" : "danipalomachado@gmail.com" }, { "name" : "Rayssa", "email" : "deborarayssa7@gmail.com" }, { "name" : "Atendimento PoloSul", "email" : "atendimento@polosul.org" }, { "name" : "Adilson Ramiro Petrucelli", "email" : "adilsonpetru@gmail.com" }, { "name" : "Felipe Vargas", "email" : "119685@upf.br" }, { "name" : "Jean Marcos", "email" : "jean.marcos@transend.com.br" }, { "name" : "Alexandre Zanatta", "email" : "zanatta@upf.br" }, { "name" : "Fabio Rizzo", "email" : "fabiorizzo@vindula.com.br" }, { "name" : "Tainara Dornel", "email" : "dornel.karine@hotmail.com" }, { "name" : "Tainara Dornel", "email" : "135068@upf.br" }, { "name" : "Tainara Dornel", "email" : "dornel.tainara@gmail.com" }, { "name" : "Aseu", "email" : "aseu.aseu@gmail.com" }, { "name" : "Nelson", "email" : "nsj09@hotmail.com" }, { "name" : "Resposta de mensagem de e-mail", "email" : "m+31tf0ixp000zg6ah2r2o00002lyuqi2i4umylwwdqzft82h02m6@reply.facebook.com" }, { "name" : "Mauricio Karrei", "email" : "m_karrei@yahoo.com.br" }, { "name" : "Mauricio Karrei", "email" : "mauriciokarrei@gmail.com" }, { "name" : "Mauricio Karrei", "email" : "122962@upf.br" }, { "name" : "Isdr ", "email" : "isadora.alievi@hotmail.com" }, { "name" : "G@ ", "email" : "douglas.raber@hotmail.com" }, { "name" : "Maikel Alievi da Silva", "email" : "maikelalievi@gmail.com" }, { "name" : "Henrique Flores", "email" : "henriquegflores@gmail.com" }, { "name" : "Resposta de mensagem de e-mail", "email" : "m+30bgnrpo000zg6ah2r2o00002lxx8b59wufqf46zdf44ytyx2ln@reply.facebook.com" }, { "name" : "Andre Giarreta", "email" : "97533@upf.br" }, { "name" : "Resposta de mensagem de e-mail", "email" : "m+31q1h880000zg6ah2r2o00002lxxxlorvn0igbkmrvwnbi482lo@reply.facebook.com" }, { "name" : "BusqueOAA BARATOS ML Otavio.", "email" : "livrosbaratos@yahoo.com" }, { "name" : "Ricardo Duranti", "email" : "duranti.92@gmail.com" }, { "name" : "Cristian", "email" : "128358@upf.br" }, { "name" : "William Daga- Comercio Eletronico", "email" : "wilonzinho@yahoo.com.br" }, { "name" : "Felipe De Vargas, (Google Drive)", "email" : "felipevar26@gmail.com" }, { "name" : "Maikel Alievi", "email" : "maikelalievi@gmail.com" }, { "name" : "Jaqueline", "email" : "jaqueline.fmma@gmail.com" }, { "name" : "Resposta de mensagem de e-mail", "email" : "m+31nk5t4n000zg6ah2r2o00002lzly4oyudlkf6awuxakq0z82mk@reply.facebook.com" }, { "name" : "GAME-INFO SHOP", "email" : "gameinfoshop@gmail.com" }, { "name" : "replyto+CkJDZ3huY0d4MWMxOXpkSEpsWVcwYUlYb3hNblpuTVdKNk1HNW1OSFZxWkhNMU1qTnhlV1J5YVdkemRubDZhRzFtYmcQm5_a_OoJKiF6MTJ2ZzFiejBuZjR1amRzNTIzcXlkcmlnc3Z5emhtZm4+AI3v7_UAAAAAU27XxbuiOFU0IZCPAomc4tql2MsSuqkN@plus.google.com", "email" : "replyto+CkJDZ3huY0d4MWMxOXpkSEpsWVcwYUlYb3hNblpuTVdKNk1HNW1OSFZxWkhNMU1qTnhlV1J5YVdkemRubDZhRzFtYmcQm5_a_OoJKiF6MTJ2ZzFiejBuZjR1amRzNTIzcXlkcmlnc3Z5emhtZm4+AI3v7_UAAAAAU27XxbuiOFU0IZCPAomc4tql2MsSuqkN@plus.google.com" }, { "name" : "Resposta de mensagem de e-mail", "email" : "m+31a0rp6o000zg6ah2r2o00002nxestk8twdtzbd3c5mlpc0l2my@reply.facebook.com" }, { "name" : "Pavan", "email" : "pavan@upf.br" }, { "name" : "- Wilsoon _", "email" : "wilsonaugustoboni@hotmail.com" }, { "name" : "JOSE MAURICIO CARRE MACIEL", "email" : "jose.mauricio@gmail.com" }, { "name" : "JOSE MAURICIO CARRE MACIEL", "email" : "jmmaciel@upf.br" }, { "name" : "Resposta de mensagem de e-mail", "email" : "m+30fpgcqa000zg6ah2r2o00002nxqpdfais4xg3jrl1cawh0z2n7@reply.facebook.com" }, { "name" : "Resposta de mensagem de e-mail", "email" : "m+30tpd1c2000zg6ah2r2o00002nxo1u9cotbzw6mnm34zufid2n5@reply.facebook.com" }, { "name" : "Rafael Rieder", "email" : "rieder@upf.br" }, { "name" : "Rafael Rieder", "email" : "rafaelrieder@gmail.com" }, { "name" : "Marcelo Rebonatto", "email" : "rebonatto@upf.br" }, { "name" : "Resposta de mensagem de e-mail", "email" : "m+31uwn2tq000zg6ah2r2o00002ny63dyshqc2d1hggvtjty4o2nc@reply.facebook.com" }, { "name" : "Resposta de mensagem de e-mail", "email" : "m+30e93r4v000zg6ah2r2o00002ny62w78sgiqpxv39nod30922nc@reply.facebook.com" }, { "name" : "Matheus Crespi Schenfeld", "email" : "111967@upf.br" }, { "name" : "Professor Schaeffer", "email" : "schaeffer@upf.br" }, { "name" : "Professor Schaeffer", "email" : "carlos.schaeffer@gmail.com" }, { "name" : "Wesley Willians", "email" : "wsilva@schoolofnet.com" }, { "name" : "Resposta de mensagem de e-mail", "email" : "m+319mh4eq000zg6ah2r2o00002nybv403x1cxzq8rtg5f5g7p2ng@reply.facebook.com" }, { "name" : "Felipe", "email" : "fellypedevargas@hotmail.com" }, { "name" : "Susana Rodrigues Cassemiro", "email" : "su.cas.semiro@hotmail.com" }, { "name" : "Resposta de mensagem de e-mail", "email" : "m+30lc1qon000zg6ah2r2o00002nye2bf7jdylysfyxh22u6ap2ni@reply.facebook.com" }, { "name" : "Fabio Dornel - Email Hotmail", "email" : "dornel.kbelo@hotmail.com" }, { "name" : "Fabio Dornel - Email Hotmail", "email" : "dornel.kbelo@hotmail.com" }, { "name" : "Fabio Dornel - Email Hotmail", "email" : "dornel.kbelo@hotmail.com" }, { "name" : "seinfo@upf.br", "email" : "seinfo@upf.br" }, { "name" : "97546@upf.br", "email" : "97546@upf.br" }, { "name" : "Davi Finger Fornari", "email" : "davifornari@hotmail.com" }, { "name" : "camila.posser@gmail.com", "email" : "camila.posser@gmail.com" }, { "name" : "Fernanda Lucietto", "email" : "flucietto_@hotmail.com" }, { "name" : "Fernanda Lucietto", "email" : "flucietto_@hotmail.com" }, { "name" : "uh_south@hotmail.com", "email" : "uh_south@hotmail.com" }, { "name" : "Giovani Grapiglia", "email" : "giovanifacu@hotmail.com" }, { "name" : "Maria Dolores", "email" : "dolores.mariavieira@gmail.com" }, { "name" : "Cristiano Magro - Korpore", "email" : "cristianokorpore@gmail.com" }, { "name" : "Lucas C. dos Santos", "email" : "luh_south@hotmail.com" }, { "name" : "noreply", "email" : "noreply@facebookmail.com" }, { "name" : "tts", "email" : "te" }, { "name" : "Simeia Pedroso - Conafit", "email" : "simeia@conafit.com.br" }, { "name" : "Adriano Teixeira", "email" : "teixeira@upf.br" }, { "name" : "matheus crespi schenfeld", "email" : "matheuscrespischenfeld@gmail.com" }, { "name" : "Resposta de mensagem de e-mail", "email" : "m+31tpi4o5000zg6ah2r2o00002nyf9fwuyvzhyhe589tcim152nj@reply.facebook.com" }, { "name" : "computacao@upf.br", "email" : "computacao@upf.br" }, { "name" : "fabio", "email" : "fabio.dornel@transend.com.br" }, { "name" : "Fabio Dornel", "email" : "dornel.fabio2@gmail.com" }, { "name" : "fabio.dornel@tramsend.com.br", "email" : "fabio.dornel@tramsend.com.br" }, { "name" : "roberson.nicolege5@gmail.com", "email" : "roberson.nicolege5@gmail.com" }, { "name" : "Roberson Nicolage", "email" : "roberson.nicolege5@gmail.com" }, { "name" : "Roberson Nicolage", "email" : "roberson.nicolage@transend.com.br" }, { "name" : "Elisabeth Machado", "email" : "itamar.beti@gmail.com" }, { "name" : "vendas.subdigital", "email" : "vendas.subdigital@gmail.com" }, { "name" : "frederico", "email" : "frederico@upf.br" }, { "name" : "'Giordani \\n Ce", "email" : "giord.ce@gmail.com" }, { "name" : "Elisabeth Machado", "email" : "elisabethymachado@hotmail.com" }, { "name" : "Joao Machado", "email" : "machadojoao76@gmail.com" }, { "name" : "sac", "email" : "sac@jocar.com.br" }, { "name" : "Jorge Luiz Boeira Bavaresco", "email" : "jlbavaresco@gmail.com" }, { "name" : "luis fernando", "email" : "reciclemais.tec@hotmail.com" }, { "name" : "bomnegocio.com - Fabio", "email" : "dornmuo365ck2s36@smail.bomnegocio.com" }, { "name" : "trentin", "email" : "trentin@upf.br" }, { "name" : "RoboCore", "email" : "info@robocore.net" }, { "name" : "RoboCore", "email" : "vini@robocore.net" }, { "name" : "jeancaraca@gmail.com", "email" : "jeancaraca@gmail.com" }, { "name" : "Graciella Colla", "email" : "117715@upf.br" }, { "name" : "MASTER Suelen", "email" : "master.sarandi@hotmail.com" }, { "name" : "Laiza Signor", "email" : "laizags.signor@gmail.com" }, { "name" : "Igor Moraes", "email" : "igor.moraes@transend.com.br" }, { "name" : "Igor Moraes", "email" : "igorjorje32@gmail.com" }, { "name" : "Igor Moraes", "email" : "igorjorje32@gmail.com" }, { "name" : "Edson Padilha", "email" : "edson.padilha@transend.com.br" }, { "name" : "Edson Padilha", "email" : "elfp666@gmail.com" }, { "name" : "Edson Padilha", "email" : "elfp666@gmail.com" }, { "name" : "Henrique Gavioli", "email" : "henriquegflores@gmail.com" }, { "name" : "Loja", "email" : "loja@viccina.com.br" }, { "name" : "105786@upf.br", "email" : "105786@upf.br" }, { "name" : "William Oliveira", "email" : "william.oliveira@agcocorp.com" }, { "name" : "'Giordani \\n Ce", "email" : "giord.ce@gmail.com" }, { "name" : "Eduardo Schaefer", "email" : "117913@upf.br" }, { "name" : "117913@upf.br", "email" : "117913@upf.br" }, { "name" : "danielly vieira", "email" : "danigueti@gmail.com" }, { "name" : "Master", "email" : "master@mastercomponentes.net" }, { "name" : "Felipe Pollo - Unimed Planalto Medio", "email" : "felipe.pollo@unimedpf.com.br" }, { "name" : "Jussara Colossi", "email" : "colossi.jussara@gmail.com" }, { "name" : "Jorge Ricardo Alievi", "email" : "quiki_130@hotmail.com" }, { "name" : "quiki_130@hotmail.com", "email" : "quiki_130@hotmail.com" }, { "name" : "Giovani Grapiglia", "email" : "bigodegiovani@gmail.com" }, { "name" : "DL RH CWI RS", "email" : "rhrs@cwi.com.br" }, { "name" : "Jean Marcos da Rosa", "email" : "jeanmarcosdarosa@gmail.com" }, { "name" : "Jean Marcos da Rosa", "email" : "jeancaraca@gmail.com" }, { "name" : "Jean Marcos da Rosa", "email" : "jean.marcos@transend.com.br" }, { "name" : "Jean Marcos da Rosa", "email" : "jeancaraca@gmail.com" }, { "name" : "Eduardo Schaefer", "email" : "eduardo.schaefer@yahoo.com.br" }, { "name" : "Fernanda Pacheco", "email" : "fernanda_pacheco@sicredi.com.br" }, { "name" : "Gustavo - Guto filho Jussara", "email" : "fotofamacolor@hotmail.com" }, { "name" : "Gustavo - Guto filho Jussara", "email" : "augustowcs@yahoo.com.br" }, { "name" : "Joao Marcos Floriano", "email" : "joaomfloriano@gmail.com" }, { "name" : "Responder ao comentario", "email" : "e+0e28bss000zg6ah2r2o00fo650wd61t0000000000000000000000002su09@reply.facebook.com" }, { "name" : "Danielly Paloma Machado Vieira", "email" : "danipalomachado@gmail.com" }, { "name" : "Debora Rayssa Machado Vieira", "email" : "vieiradebora.ray@gmail.com" }, { "name" : "Lucas Amaral Machado - Lucao", "email" : "lucasdoamaral11@bol.com.br" }, { "name" : "alvaro@atua.com.br", "email" : "alvaro@atua.com.br" }, { "name" : "Igor eduardo", "email" : "igorcolorado201@gmail.com" }, { "name" : "Franciele Schambeck", "email" : "francieleschambeck@gmail.com" }, { "name" : "Telmo Dornel", "email" : "telmo.dornel@gmail.com" }, { "name" : "cv@compasso.com.br", "email" : "cv@compasso.com.br" }, { "name" : "Paola Campanha da Silva", "email" : "paola@compasso.com.br" }, { "name" : "rh@compasso.com.br", "email" : "rh@compasso.com.br" }, { "name" : "Alvaro Melo", "email" : "al_nunes@atua.com.br" }, { "name" : "lucasdoamaral11@bol.com.br", "email" : "lucasdoamaral11@bol.com.br" }, { "name" : "Telmo Dornel", "email" : "telmodornel@gmail.com" }, { "name" : "Shallacom Augusto dos Santos", "email" : "shallacon.oliveira@gmail.com" }, { "name" : "Guilherne Merten", "email" : "guilherme.merten@compasso.com.br" }, { "name" : "mastersarandi@yahoo.com.br", "email" : "mastersarandi@yahoo.com.br" }, { "name" : "Adriana", "email" : "adriana@silvaimoveisrs.com.br" }, { "name" : "Locacao Lorenzato Imoveis", "email" : "locacao@lorenzatoimoveis.com.br" }, { "name" : "Diego Bernardi", "email" : "diego@academiasimbiose.com.br" }, { "name" : "carla.camargo@itau-unibanco.com.br", "email" : "carla.camargo@itau-unibanco.com.br" }, { "name" : "Diane Haas", "email" : "dianehaas2009@hotmail.com" }, { "name" : "shallacon.oliveira@gmail.com", "email" : "shallacon.oliveira@gmail.com" }, { "name" : "Paula Rocha", "email" : "anapaularochag1@hotmail.com" }, { "name" : "Clovis Quadros", "email" : "quadros.16clovis@gmail.com" }, { "name" : "streppels", "email" : "streppels@gmail.com" }, { "name" : "streppels", "email" : "streppels@gmail.com" }, { "name" : "Eliunes Donida", "email" : "eliunesdonida34@gmail.com" }, { "name" : "KLM Informatica. Desde 1996. www.klminfo.com.br", "email" : "klminfo@klminfo.com.br" } ], "pais" : "brasil", "serialdevice" : "b2a17311e4f716ec" }
{ "_id" : "igorcolorado201@gmail.com", "alert_token_is_send" : false, "buildversion" : 30, "city" : "passo fundo", "configs" : { "posts_for_refresh" : 5, "btn_refresh_post" : true, "btn_translate" : true, "btn_subir" : true, "posts_images" : true, "posts_video" : true, "auto_comment" : true, "theme" : "padrao", "lang" : "en-US" }, "date_first_access" : { "$date" : 1420851832539 }, "date_last_access" : { "$date" : 1428931113903 }, "first_name" : "Igor", "last_name" : "eduardo", "list_channels_revoke" : null, "list_contacts" : [ { "name" : "viniciuscamini1996@hotmail.com", "email" : "viniciuscamini1996@hotmail.com" }, { "name" : "Fabio Dornel", "email" : "dornel.fabio2@gmail.com" }, { "name" : "Jean", "email" : "jeancaraca@gmail.com" } ], "pais" : "brasil", "serialdevice" : "ce956a4ded59be94" }
{ "_id" : "jeancaraca@gmail.com", "alert_token_is_send" : false, "buildversion" : 30, "city" : "", "configs" : { "posts_for_refresh" : "10", "auto_comment" : true, "btn_translate" : true, "btn_subir" : true, "btn_refresh_post" : true, "posts_images" : true, "posts_video" : true, "theme" : "undefined", "lang" : false }, "date_first_access" : { "$date" : 1420682809881 }, "date_last_access" : { "$date" : 1429060772751 }, "first_name" : "JeanMarcos", "last_name" : "", "list_channels_revoke" : [], "list_contacts" : [ { "name" : "sup2@accipiens.com", "email" : "sup2@accipiens.com" }, { "name" : "suporte2@accipiens.com.br", "email" : "suporte2@accipiens.com.br" }, { "name" : "loudshakes5@gmail.com", "email" : "loudshakes5@gmail.com" }, { "name" : "Jean Marcos da Rosa", "email" : "jeancaraca@gmail.com" }, { "name" : "Cristiano Baldo", "email" : "baldo021@gmail.com" }, { "name" : "programacao_upf@googlegroups.com", "email" : "programacao_upf@googlegroups.com" }, { "name" : "felipe.giacomoni@compasso.com.br", "email" : "felipe.giacomoni@compasso.com.br" }, { "name" : "vendas kurtyr", "email" : "vendas@kurtyr.com.br" }, { "name" : "Laiza Signor", "email" : "laizags.signor@gmail.com" }, { "name" : "Otavio Danieli Neto", "email" : "otaviodanielineto@gmail.com" }, { "name" : "victorsr@compasso.com.br", "email" : "victorsr@compasso.com.br" }, { "name" : "paulinho.h.santini@gmail.com", "email" : "paulinho.h.santini@gmail.com" }, { "name" : "Everton Pimentel", "email" : "evertonfranciscopimentel@gmail.com" }, { "name" : "marcelo.radke@bol.com.br", "email" : "marcelo.radke@bol.com.br" }, { "name" : "EATI UFSM", "email" : "eati@cafw.ufsm.br" }, { "name" : "uri. onlinejudge", "email" : "uri.onlinejudge@gmail.com" }, { "name" : "rodrigoscbc@gmail.com", "email" : "rodrigoscbc@gmail.com" }, { "name" : "schaeffer@upf.br", "email" : "schaeffer@upf.br" }, { "name" : "giord.ce@gmail.com", "email" : "giord.ce@gmail.com" }, { "name" : "Estrutura Fitness", "email" : "contato@estruturafitness.com.br" }, { "name" : "Jean Rosa", "email" : "jean.rosa@compasso.com.br" }, { "name" : "Natan Iago Moura Streppel", "email" : "natan.streppel@compasso.com.br" }, { "name" : "Accipiens", "email" : "lara@accipiens.com.br" }, { "name" : "Eliunes Donida", "email" : "eliunesdonida34@gmail.com" }, { "name" : "VIladir de Bortoli", "email" : "web3xdobrasil@gmail.com" }, { "name" : "Renan Viana Santos", "email" : "renanvianasantos@gmail.com" }, { "name" : "Pablo Kleemann", "email" : "kl33m4nn@gmail.com" }, { "name" : "Graciela Colla", "email" : "gracielacolla2010@gmail.com" }, { "name" : "Rebonatto", "email" : "rebonatto@upf.br" }, { "name" : "Mayara Silva", "email" : "mayara.sva@gmail.com" }, { "name" : "filecross000@gmail.com", "email" : "filecross000@gmail.com" }, { "name" : "Gabriel Perin Pieta", "email" : "gabrielperin10@gmail.com" }, { "name" : "Angelica Skalee", "email" : "angiiskalee@gmail.com" }, { "name" : "alexandreoliveira@hotmail.com.br", "email" : "alexandreoliveira@hotmail.com.br" }, { "name" : "Rodrigo Grubert", "email" : "rodrigo.grubert@hotmail.com" }, { "name" : "Thiago Forster", "email" : "thiagoforster@hotmail.com" }, { "name" : "Leonardo Rebonato", "email" : "leonardo_rebonato_07@hotmail.com" }, { "name" : "leonardo rebonato", "email" : "leonardo.rebonato@gmail.com" }, { "name" : "leonardo rebonato", "email" : "leonardo_rebonato_07@hotmail.com" }, { "name" : "Ricardo Duranti", "email" : "duranti.92@gmail.com" }, { "name" : "Ricardo Duranti", "email" : "duranti92@gmail.com" }, { "name" : "guilherme.malfatti@compasso.com.br", "email" : "guilherme.malfatti@compasso.com.br" }, { "name" : "crossbug95@gmail.com", "email" : "crossbug95@gmail.com" }, { "name" : "crossbub95@gmail.com", "email" : "crossbub95@gmail.com" }, { "name" : "Jean Marcos", "email" : "jeancaraca@hotmail.com" }, { "name" : "Jean Marcos", "email" : "jeanmarcosdarosa@gmail.com" }, { "name" : "Neilor Tonin", "email" : "neilor@urionlinejudge.com.br" }, { "name" : "Felipe Giacomoni", "email" : "felipe00510@gmail.com" }, { "name" : "Cleyton Bonamigo", "email" : "cleytonbonamigo@gmail.com" }, { "name" : "Cleyton Bonamigo", "email" : "cleytonbonamigo@hotmail.com" }, { "name" : "Leonardo Deliyannis Constantin", "email" : "constantin.leo@gmail.com" }, { "name" : "Marciano Som E Luz", "email" : "msleventos@gmail.com" }, { "name" : "RH Compasso", "email" : "rh@compasso.com.br" }, { "name" : "contato@marcianosomeluz.com.br", "email" : "contato@marcianosomeluz.com.br" }, { "name" : "Roberson Nicolodi", "email" : "roberson.nicolodi5@gmail.com" }, { "name" : "Igor Moraes", "email" : "igorjorje32@gmail.com" }, { "name" : "Jean Bez", "email" : "bez@urionlinejudge.com.br" }, { "name" : "igor.moraes@transend.com.br", "email" : "igor.moraes@transend.com.br" }, { "name" : "Natan Streppel", "email" : "streppels@gmail.com" }, { "name" : "Financeiro Compasso", "email" : "financeiro@compasso.com.br" }, { "name" : "Isabel Macieira Sorio", "email" : "isabel@compasso.com.br" }, { "name" : "117687@upf.br", "email" : "117687@upf.br" }, { "name" : "Mateus Perego", "email" : "mateusperego@yahoo.com.br" }, { "name" : "uiZ OtAvi0 .", "email" : "luizlamartinez@hotmail.com" }, { "name" : "rommel biehl", "email" : "nerson.kar@hotmail.com" }, { "name" : "Ana Roberta Oliveira", "email" : "ana_cvel17@hotmail.com" }, { "name" : "Lucas Sbeghen", "email" : "lucas@tellecompf.com.br" }, { "name" : "contato@mosite.com.br", "email" : "contato@mosite.com.br" }, { "name" : "Roberto Rabello", "email" : "robertodossantosrabello@gmail.com" }, { "name" : "tickets-283898-82cf8468e3e4c4d6b90900c9c9ae9edf5349a155@support.digitalocean.com", "email" : "tickets-283898-82cf8468e3e4c4d6b90900c9c9ae9edf5349a155@support.digitalocean.com" }, { "name" : "AngAlyka Alessandra", "email" : "angelykaalessandra@yahoo.com" }, { "name" : "Leonardo", "email" : "116778@upf.br" }, { "name" : "Cristiane Butura", "email" : "cristianebutura@gmail.com" }, { "name" : "Cristiane", "email" : "109175@upf.br" }, { "name" : "computacao@upf.br", "email" : "computacao@upf.br" }, { "name" : "Eduarda Cadore", "email" : "eduarda.cad@gmail.com" }, { "name" : "Edson Padilha", "email" : "elfp666@gmail.com" }, { "name" : "daniela.garlet@hotmail.com", "email" : "daniela.garlet@hotmail.com" }, { "name" : "edson.padilha@transend.com.br", "email" : "edson.padilha@transend.com.br" }, { "name" : "Saionara Skalee", "email" : "saionaraskalee@gmail.com" }, { "name" : "marcosskalee@gmail.com", "email" : "marcosskalee@gmail.com" }, { "name" : "Marciano Cadore", "email" : "marcianocadore@hotmail.com" }, { "name" : "Natan Strepel", "email" : "123244@upf.br" }, { "name" : "Marciano Som e Luz", "email" : "marciano@marcianosomeluz.com.br" }, { "name" : "vendas@mundopneus.com.py", "email" : "vendas@mundopneus.com.py" }, { "name" : "tonezer@upf.br", "email" : "tonezer@upf.br" }, { "name" : "postmaster@jeanmarcos.com.br", "email" : "postmaster@jeanmarcos.com.br" }, { "name" : "contato@jeanmarcos.com.br", "email" : "contato@jeanmarcos.com.br" }, { "name" : "denisebooe55@gmail.com", "email" : "denisebooe55@gmail.com" }, { "name" : "Fabio Dornel", "email" : "dornel.fabio2@gmail.com" }, { "name" : "Ricardo Duranti", "email" : "duranti92@gmail.com" }, { "name" : "roberto@saiconrs.com", "email" : "roberto@saiconrs.com" }, { "name" : "tonezer@oi.com.br", "email" : "tonezer@oi.com.br" }, { "name" : "Bernardo Trevisan", "email" : "141960@upf.br" }, { "name" : "Matheus dos Santos Castro", "email" : "134391@upf.br" }, { "name" : "138031@upf.br", "email" : "138031@upf.br" }, { "name" : "manoela.brum@hotmail.com", "email" : "manoela.brum@hotmail.com" }, { "name" : "ederpazinatto@upf.br Pazinatto", "email" : "ederpazinatto@upf.br" }, { "name" : "Gabriel Paludo Licks", "email" : "138119@upf.br" }, { "name" : "Gabriel Cena Kressin", "email" : "gabriel.c.kressin@gmail.com" }, { "name" : "Leonardo Fabro da Rocha", "email" : "leonardo@sollucao.net" }, { "name" : "136873@upf.br", "email" : "136873@upf.br" }, { "name" : "vinicius.pratesviegas@gmail.com", "email" : "vinicius.pratesviegas@gmail.com" }, { "name" : "fabio.dornel@transend.com.br", "email" : "fabio.dornel@transend.com.br" }, { "name" : "Marcos Jose Brusso", "email" : "brusso@upf.br" }, { "name" : "carlos.schaeffer@gmail.com", "email" : "carlos.schaeffer@gmail.com" }, { "name" : "espacocultural512@gmail.com", "email" : "espacocultural512@gmail.com" }, { "name" : "pablo.leonrodrigues@gmail.com", "email" : "pablo.leonrodrigues@gmail.com" }, { "name" : "5499628432@clarotorpedo.com.br", "email" : "5499628432@clarotorpedo.com.br" }, { "name" : "555499628432@rpgmail.net", "email" : "555499628432@rpgmail.net" }, { "name" : "555499628432@txt.att.net", "email" : "555499628432@txt.att.net" }, { "name" : "05499628432@clarotorpedo.com.br", "email" : "05499628432@clarotorpedo.com.br" }, { "name" : "renanvianasantos@hotmail.com", "email" : "renanvianasantos@hotmail.com" }, { "name" : "diegogadenz@live.com", "email" : "diegogadenz@live.com" }, { "name" : "mateus.h.darosa@gmail.com", "email" : "mateus.h.darosa@gmail.com" }, { "name" : "dornel.kbelo@hotmail.com", "email" : "dornel.kbelo@hotmail.com" }, { "name" : "Igor Eduardo Da Rosa", "email" : "igorcolorado201@gmail.com" }, { "name" : "jean.marcos@transend.com.br", "email" : "jean.marcos@transend.com.br" }, { "name" : "andregiaretta89@gmail.com", "email" : "andregiaretta89@gmail.com" }, { "name" : "Fabio Dornel", "email" : "dornel.fabio2@gmail.com" }, { "name" : "[TN3] TN3 Solucoes", "email" : "tn3@tn3.com.br" }, { "name" : "alvaro@atua.com.br", "email" : "alvaro@atua.com.br" }, { "name" : "alfasig@alfasig.com.br", "email" : "alfasig@alfasig.com.br" }, { "name" : "vagaspoa@mv.com.br", "email" : "vagaspoa@mv.com.br" }, { "name" : "Gilberto Gampert", "email" : "gampert@upf.br" }, { "name" : "cv@compasso.com.br", "email" : "cv@compasso.com.br" }, { "name" : "rh@msdevelop.com.br", "email" : "rh@msdevelop.com.br" }, { "name" : "Fernanda Pacheco dos Santos", "email" : "fernanda_pacheco@sicredi.com.br" }, { "name" : "selecaorh@upf.br", "email" : "selecaorh@upf.br" }, { "name" : "jader zantedeschi", "email" : "jader.zantedeschi@hotmail.com" }, { "name" : "igor_colorado_201@gmail.com", "email" : "igor_colorado_201@gmail.com" }, { "name" : "igor-colorado2012@hotmail.com", "email" : "igor-colorado2012@hotmail.com" }, { "name" : "Vagas APOIA. se", "email" : "vagas@apoia.se" }, { "name" : "Vine", "email" : "rafael.viniciusd.da.rosa@gmail.com" }, { "name" : "Grupo My Shop Brasil", "email" : "myshopbrasil@gmail.com" }, { "name" : "116778@upf.br", "email" : "116778@upf.br" }, { "name" : "adair_dias@yahoo.com.br", "email" : "adair_dias@yahoo.com.br" }, { "name" : "roberto@zaffarinet.com.br", "email" : "roberto@zaffarinet.com.br" }, { "name" : "gerentes@zaffarinet.com.br", "email" : "gerentes@zaffarinet.com.br" }, { "name" : "guilherme@zaffarinet.com.br", "email" : "guilherme@zaffarinet.com.br" }, { "name" : "Agencia de Empregos de Passo Fundo", "email" : "cadastros@bolsaempregos.com.br" }, { "name" : "supadm@zaffarinet.com.br", "email" : "supadm@zaffarinet.com.br" }, { "name" : "lojas@zaffarinet.com.br", "email" : "lojas@zaffarinet.com.br" }, { "name" : "Tais Colvero", "email" : "tais.colvero@unijui.edu.br" }, { "name" : "Trabalho", "email" : "bellacitta@zaffarinet.com.br" }, { "name" : "maiaragrubert@yahoo.com.br", "email" : "maiaragrubert@yahoo.com.br" }, { "name" : "mais economica", "email" : "fernando.ti@maiseconomica.com.br" }, { "name" : "joelson_macedo@yahoo.com", "email" : "joelson_macedo@yahoo.com" }, { "name" : "ELECIR GORETTI BERTEI", "email" : "elecir.bertei@yahoo.com.br" }, { "name" : "ELECIR GORETTI BERTEI", "email" : "elecir.bertei@yahoo.com.br" }, { "name" : "Nathan Blogs", "email" : "nathan.cita@hotmail.com" }, { "name" : "UNIJUI", "email" : "uni-tes@unijui.edu.br" }, { "name" : "luan lopes", "email" : "luana-lopes@hotmail.com" }, { "name" : "thiago moreira", "email" : "bmbikemotors@hotmail.com" }, { "name" : "vendas@lojanitrous.com.br", "email" : "vendas@lojanitrous.com.br" }, { "name" : "gustavo felipe souza valadares", "email" : "gustavoteki7@hotmail.com" }, { "name" : "Vinicius Viegas", "email" : "vpratesv@hotmail.com" }, { "name" : "Alessandro Chaves Moura", "email" : "alejovem10@hotmail.com" }, { "name" : "Tiago Rodrigues de Sousa", "email" : "tiagorodriguessousa@hotmail.com" }, { "name" : "Andreia Lara", "email" : "andreia@accipiens.com.br" }, { "name" : "Roberto Bartelmebs", "email" : "roberto@saiconrs.com" }, { "name" : "Zeneida Rodrigues", "email" : "zeneidars@hotmail.com" }, { "name" : "fabio antonio", "email" : "fabiogringu@hotmail.com" }, { "name" : "Emeli Jacomini", "email" : "emeli_jacomini@hotmail.com" }, { "name" : "gato sexo", "email" : "gatodpgato@hotmail.com" }, { "name" : "Lucas Willtec", "email" : "lucaswilltec@hotmail.com" }, { "name" : "VGI Suporte - Tiago A.I. .", "email" : "tiago@vgiinformatica.com.br" }, { "name" : "Patriick Ruaan Stiehl", "email" : "patrick_ruamm@hotmail.com" }, { "name" : "Rudinei Ceolin", "email" : "rceolin_05@msn.com" }, { "name" : "Djalma Junior", "email" : "djalma.dids@gmail.com" }, { "name" : "Monique Meister", "email" : "niniquemac@hotmail.com" }, { "name" : "cristiano angelo", "email" : "cristiano_de_angelo@hotmail.com" }, { "name" : "Felipe Rosa", "email" : "felipe_almeida_1@hotmail.com" }, { "name" : "vanessa leszna", "email" : "vanessaa33@hotmail.com" }, { "name" : "leovitor1994@hotmail.com", "email" : "leovitor1994@hotmail.com" }, { "name" : "T A I S", "email" : "taistsiqueira@hotmail.com" }, { "name" : "Leandro Callai", "email" : "kallay.leo@hotmail.com" }, { "name" : "rafa.vini2000@hotmail.com", "email" : "rafa.vini2000@hotmail.com" }, { "name" : ".Josias", "email" : "Rafaelvto@gmail.com" }, { "name" : "Pedro Ortiz Machado", "email" : "pedroortizmachado@hotmail.com" }, { "name" : "simps reyes", "email" : "ano.nime@hotmail.com" }, { "name" : "MARISTELA STEFFENS", "email" : "teia3101@hotmail.com" }, { "name" : "Ana Paula Ferreira Duarte", "email" : "anapaula__sk8@hotmail.com" }, { "name" : "JOAO CARLOS", "email" : "jt-mancotargino@hotmail.com" }, { "name" : "Aaron Leonardo N.", "email" : "aaron.leonardo@hotmail.com" }, { "name" : "Monise Becker", "email" : "nih.becker@hotmail.com" }, { "name" : "Fernanda Golart", "email" : "fernandagolart@hotmail.com" }, { "name" : "Daniel Schrader", "email" : "danielschrader@hotmail.com" }, { "name" : "Adl Mtnc", "email" : "adriel.corp@live.com" }, { "name" : "Jonas .", "email" : "jonas_alucinados@hotmail.com" }, { "name" : "lucas lukao", "email" : "l_f-250@hotmail.com" }, { "name" : "Alan Jones", "email" : "alan.j.t@hotmail.com" }, { "name" : "everaldo.nunes@hotmail.com", "email" : "everaldo.nunes@hotmail.com" }, { "name" : "simeon silva", "email" : "simeon_2010@hotmail.com" }, { "name" : "SUCKAS FLAVIA E LUCAS", "email" : "meg_elvis@hotmail.com" }, { "name" : "maya alban", "email" : "mayarinha_sva@hotmail.com" }, { "name" : "Lucas Meira Ottonelli", "email" : "lucasm_ottonelli@hotmail.com" }, { "name" : "roberto_pdn_007@hotmail.com", "email" : "roberto_pdn_007@hotmail.com" }, { "name" : "Cassio Morais.", "email" : "cassiodefranca@hotmail.com" }, { "name" : "juliane ceolin", "email" : "julianecarineceolin@hotmail.com" }, { "name" : "EdVaN MiNhA aTiTuDe DePeNdE dA SuA", "email" : "vannisteroy10@hotmail.com" }, { "name" : "Pedro Gabriel", "email" : "pedrynhojkgvfrgb@hotmail.com" }, { "name" : "Manoel Salvador", "email" : "salvador_energia@hotmail.com" }, { "name" : "jeferson lino vieiria lino vieira", "email" : "jefersonpet@hotmail.com" }, { "name" : "Dioser Limana", "email" : "dioser_limana@hotmail.com" }, { "name" : "big suco", "email" : "cellomac@hotmail.com" }, { "name" : "Tamyres Ferreira", "email" : "tamyresFerreira01@hotmail.com" }, { "name" : "Antonio Samuel F. Santos", "email" : "antonio.samuel@hotmail.com" }, { "name" : "helano lopes", "email" : "helano12lopes@hotmail.com" }, { "name" : "Mengo no coracao      Cassio Flamengo", "email" : "walbercassio@hotmail.com" }, { "name" : "Fabiele Zeni", "email" : "faby_zeni@hotmail.com" }, { "name" : "Juliana Reis", "email" : "gusdaxurupita@hotmail.com" }, { "name" : "Du... nunes de mattos", "email" : "dudu_nunes_10@hotmail.com" }, { "name" : "jaime prates", "email" : "jaime.prates@hotmail.com" }, { "name" : "Diana Johann", "email" : "credishow2@hotmail.com" }, { "name" : "David Amaro", "email" : "david.r.amaro@hotmail.com" }, { "name" : "ana paula dos santos carvalho", "email" : "anapaula_ricar@hotmail.com" }, { "name" : "Jaqueline Rocha", "email" : "jaquel_fe@hotmail.com.br" }, { "name" : "Matheus Merheb", "email" : "matheusmerheb11@hotmail.com" }, { "name" : "ueslei cabral", "email" : "Ueslei_roller@hotmail.com" }, { "name" : "Mael Rocha", "email" : "maelzito@live.com" }, { "name" : "Fernando", "email" : "fernandowisneskidias@hotmail.com" }, { "name" : "Fernanda Alievi", "email" : "fe_alie@msn.com" }, { "name" : "jessyca oliveira", "email" : "jessycagba@hotmail.com" }, { "name" : "Igor santos", "email" : "igorportuga@hotmail.es" }, { "name" : "Marciane Klein", "email" : "credishowmarci@hotmail.com" }, { "name" : "adriano oba", "email" : "adrianofelicioromero@hotmail.com" }, { "name" : "Anre ", "email" : "dedecarli.93@hotmail.com" }, { "name" : "Cristiano Baldo", "email" : "cbaldo21@hotmail.com" }, { "name" : "riedlav anatnas", "email" : "dylan432@hotmail.com" }, { "name" : "Alexandre Vogt", "email" : "alexandrecanssivogt@hotmail.com" }, { "name" : "Hugo Sarafim", "email" : "hafimcoroa@hotmail.com" }, { "name" : "willy mittelstadt", "email" : "willymitt@hotmail.com" }, { "name" : "Leo Felipe", "email" : "lsfbr@hotmail.com" }, { "name" : "juliano umpierre", "email" : "julianoooumpierre@hotmail.com" }, { "name" : "Willian Silva", "email" : "willxinho@hotmail.com" }, { "name" : "Rossano Lorenzon da Silva", "email" : "rossanols@hotmail.com" }, { "name" : "atila pio", "email" : "atilapio@hotmail.com" }, { "name" : "Bala Halls -ReMix-", "email" : "balahalls@vista.aero" }, { "name" : "Jean Mainardi", "email" : "credishow5@hotmail.com" }, { "name" : "Eunice Borges", "email" : "borges_nice@hotmail.com" }, { "name" : "Alan", "email" : "lindinhodamamae16@hotmail.com" }, { "name" : "Alcilene Dalilia", "email" : "alcileneluz@hotmail.com" }, { "name" : "Deyson Luiz Fernandes", "email" : "deysonl.fernandes@hotmail.com" }, { "name" : "Aline .", "email" : "alinesoares.00@hotmail.com" }, { "name" : "Liziane Waechter", "email" : "liziane_waechter@hotmail.com" }, { "name" : "Raylon Maciel", "email" : "psicohayllon@hotmail.com" }, { "name" : "Jefferson Martins", "email" : "fefinho_tmb@hotmail.com" }, { "name" : "juliana flausino", "email" : "tst.jf@hotmail.com" }, { "name" : "Danila Policarpo", "email" : "nila_minas@hotmail.com" }, { "name" : "Thales Victor", "email" : "thalesmoreira_laje2012@hotmail.com" }, { "name" : "Alceu Motelevicz", "email" : "alceuabel@hotmail.com" }, { "name" : "Arthur Santanna", "email" : "arthur_santanna@hotmail.com" }, { "name" : "J. Roberto", "email" : "jlmrobertoo@hotmail.com" }, { "name" : "Roger hEPP", "email" : "rogerhepp@hotmail.com" }, { "name" : "Marcelo Berenguer", "email" : "marcelo_bern@hotmail.com" }, { "name" : "Japinha Bonita", "email" : "japinhabonita@hotmail.com" }, { "name" : "aline daiane pit marinho", "email" : "alinepitmarinho@hotmail.com" }, { "name" : "Roberaldo Schroeder", "email" : "giroleve@hotmail.com" }, { "name" : "Joao Farias", "email" : "jota_pbi@hotmail.com" }, { "name" : "Fernanda meyer", "email" : "maria-fernanda1914@hotmail.com" }, { "name" : "Cleiton Roberto", "email" : "cleitonegicelia@msn.com" }, { "name" : "Karine Miotto", "email" : "kgm_karine@hotmail.com" }, { "name" : "Kauara Martins", "email" : "kauara-angel@hotmail.com" }, { "name" : "gilson Domingues", "email" : "gilsonprtr@hotmail.com" }, { "name" : "Andre Lucca", "email" : "lucca@accipiens.com.br" }, { "name" : "Jaque Santos", "email" : "jacky_fogaca@hotmail.com" }, { "name" : "claudia langaro goulart", "email" : "claudinha.goulart20@hotmail.com" }, { "name" : "Bru Jessica", "email" : "bruh-17@hotmail.com" }, { "name" : "kassiani ...", "email" : "ksy-kaka@hotmail.com" }, { "name" : "Valter Galdino", "email" : "vava_lightcomunicacao@hotmail.com" }, { "name" : "PINHEIRO NEGOCIOS", "email" : "pinheironegocios@hotmail.com" }, { "name" : "Luis Godinho", "email" : "lcg.sistemas@hotmail.com" }, { "name" : "Diego silveira", "email" : "fofade-@hotmail.com" }, { "name" : "Marciel Klein", "email" : "marciel.kl@hotmail.com" }, { "name" : "wesley Silva", "email" : "wesley_1410.94@hotmail.com" }, { "name" : "rodrigo avelino", "email" : "rodrigoavelinosd12@hotmail.com" }, { "name" : "gomes di", "email" : "didihfg_1968@hotmail.com" }, { "name" : "Miguel Dendasck", "email" : "migueldendack@hotmail.com" }, { "name" : "Saicon Rs", "email" : "assistencia@saiconrs.com" }, { "name" : "leo candido", "email" : "cobrancarecife@hotmail.com" }, { "name" : "Renan Viana Santos", "email" : "renanvyana@hotmail.com" }, { "name" : "Rafaela Antonioli", "email" : "rafinha753@msn.com" }, { "name" : "Gustavo Felipe - TiGrAuM Ti", "email" : "gustavofelipe7@hotmail.com" }, { "name" : "Petrony  Programacao Java...", "email" : "petronydvg@hotmail.com" }, { "name" : "fabio ignacio ramos", "email" : "fabio_ignacioramos@hotmail.com" }, { "name" : "dornel.fabio2@hotmail.com", "email" : "dornel.fabio2@hotmail.com" }, { "name" : "lucas berlezi", "email" : "lukas_berlezi@hotmail.com" }, { "name" : "MORENO SP", "email" : "moreno_sp.2008@hotmail.com" }, { "name" : "Viviane Almeida", "email" : "viviane.caldeira88@hotmail.com" }, { "name" : "Laura Torres", "email" : "laura_cvel@hotmail.com" }, { "name" : "roberto beto", "email" : "robertocardoso05@hotmail.com" }, { "name" : "Adair Dias", "email" : "adadias@hotmail.com" }, { "name" : "Fernando Henrique Fortes Maffi", "email" : "mensageiro567@hotmail.com" }, { "name" : "felipe.lima1912@yahoo.com", "email" : "felipe.lima1912@yahoo.com" }, { "name" : "Fernando Augusto", "email" : "fernando_dubal@hotmail.com" }, { "name" : "kemmy kr", "email" : "kemmy_sud@hotmail.com" }, { "name" : "Jhonatas Almeida", "email" : "jhowsantos18@hotmail.com" }, { "name" : "Waniely Dihl", "email" : "wanielydihl@hotmail.com" }, { "name" : "HERBERT BARROS", "email" : "hrb.rj@hotmail.com" }, { "name" : "ADriAN o ", "email" : "s.adriano01@hotmail.com" }, { "name" : "Bruna Herrmann", "email" : "bruna_herrmann@hotmail.com" }, { "name" : "Bruna Herrmann", "email" : "bruna_herrmann@hotmail.com" }, { "name" : "Neto Schuh Schuh", "email" : "netoschuh@hotmail.com" }, { "name" : "Professor Tecnologias Web", "email" : "jgw@unijui.edu.br" }, { "name" : "elecir.bertei@yahoo.com", "email" : "elecir.bertei@yahoo.com" }, { "name" : "Simone Pinheiro", "email" : "simonepinheirothebest@hotmail.com" }, { "name" : "Bruna Fernandes da Rosa", "email" : "brunaf.darosa@hotmail.com" }, { "name" : "Professor Juliano Weber", "email" : "julianors@gmail.com" }, { "name" : "- Dk", "email" : "Champiim@hotmail.com" }, { "name" : "Rodrigo Fraguas", "email" : "rodrigofraguas@hotmail.com" }, { "name" : "Fernanda Silvestre", "email" : "nanndavillasboas@hotmail.com" }, { "name" : "Wesleey NooDle", "email" : "wesley.ctba@hotmail.com" }, { "name" : "Rodrigo E Ana Trabalho", "email" : "rodrigo.loveis.ana@hotmail.com" }, { "name" : "Paulo", "email" : "paulorica1@hotmail.com" }, { "name" : "Jeisson", "email" : "jeisson_kossmann@hotmail.com" }, { "name" : "kel campos", "email" : "kelcampos30@hotmail.com" }, { "name" : "Jackye Martins Diogo", "email" : "jackye_martins@hotmail.com" }, { "name" : "Igor Moraes", "email" : "igor_jorje@hotmail.com" }, { "name" : "Diego silva", "email" : "Diego.dyk@hotmail.com" }, { "name" : "Thiago Mansur", "email" : "thiagofialho@globo.com" }, { "name" : "weverton ..", "email" : "weverton_mlk@hotmail.com" }, { "name" : "fernada farias", "email" : "nandinha_fariasoff@hotmail.com" }, { "name" : "Michely Bastos", "email" : "michely.bastos1@hotmail.com" }, { "name" : "Roberto Bartelmebs", "email" : "roberto_bartelmebs@hotmail.com" }, { "name" : "daniel lopes amancio", "email" : "daniel_lopesamancio@hotmail.com" }, { "name" : "Paulo Ricardo", "email" : "paulo_batatinha@hotmail.com" }, { "name" : "Mazoleo Digital", "email" : "mazoleo@hotmail.com" }, { "name" : "Wanderson Rangel", "email" : "wcrangel@hotmail.com" }, { "name" : "Everton Dalcin", "email" : "evertondalcin@hotmail.com" }, { "name" : "Claiton Ribeiro", "email" : "claitongremista@hotmail.com" }, { "name" : "Alessandre Bernardi", "email" : "bernardi.ale@hotmail.com" }, { "name" : "PortelaOnline Online", "email" : "msn.portela@hotmail.com" }, { "name" : "Everton Cesar", "email" : "neninhocesar@hotmail.com" }, { "name" : "fernando henrique fortes", "email" : "fer_jiu_jiteiro@hotmail.com" }, { "name" : "Oli Tossin", "email" : "oli.tossin@hotmail.com" }, { "name" : "Pedro Gabriel", "email" : "pedro.gabriel.nunes@hotmail.com" }, { "name" : "Eliunes Donida", "email" : "eliunesdonida@hotmail.com" }, { "name" : "SB CONTABILIDADE", "email" : "CHRIS.RITCHELLY@hotmail.com" }, { "name" : "Felipe Battistella", "email" : "lipebattistella@hotmail.com" }, { "name" : "Arlex Marquezzan", "email" : "arlex_marquezzan@hotmail.com" }, { "name" : "luis.ar@tn3.com.br", "email" : "luis.ar@tn3.com.br" }, { "name" : "gislaine llove", "email" : "gi_ll@live.com" }, { "name" : "Fabio Telmo Machado Dornel", "email" : "fabio.dornel@compasso.com.br" } ], "pais" : "", "serialdevice" : "362edd887bfd3839" }
{ "_id" : "jeanmarcosdarosa@gmail.com", "city" : "", "configs" : { "posts_for_refresh" : 5, "btn_refresh_post" : true, "btn_translate" : true, "btn_subir" : true, "posts_images" : true, "posts_video" : true, "auto_comment" : true, "theme" : "padrao", "lang" : "en-US" }, "date_first_access" : { "$date" : 1420689287896 }, "date_last_access" : { "$date" : 1420689334061 }, "first_name" : "Emulador", "last_name" : "", "list_channels_revoke" : null, "list_contacts" : [ { "name" : "Teste Local", "email" : "local@jean.com" }, { "name" : "Fabio Dornel", "email" : "dornel.fabio2@gmail.com" }, { "name" : "Jean Marcos", "email" : "jeancaraca@gmail.com" } ], "pais" : "", "serialdevice" : "89014103211118510720310260US" }
{ "_id" : "rafael.viniciusd.da.rosa@gmail.com", "buildversion" : 17, "configs" : { "posts_for_refresh" : "20", "auto_comment" : true, "btn_translate" : true, "btn_subir" : true, "btn_refresh_post" : true, "posts_images" : true, "posts_video" : true, "theme" : "undefined", "lang" : false }, "date_first_access" : { "$date" : 1421618415590 }, "date_last_access" : { "$date" : 1423668384041 }, "first_name" : "Rafael", "list_channels_revoke" : null, "list_contacts" : [ { "name" : "R4F43L V1D4 M4N54", "email" : "rafael@hotmail.com" } ], "serialdevice" : "5ca11d8736732d03" }
